<?xml version="1.0" encoding="utf-8"?>
<!-- Generator: Adobe Illustrator 25.0.0, SVG Export Plug-In . SVG Version: 6.00 Build 0)  -->
<svg version="1.1" id="レイヤー_1" xmlns="http://www.w3.org/2000/svg" xmlns:xlink="http://www.w3.org/1999/xlink" x="0px"
	 y="0px" viewBox="0 0 320 225.6" enable-background="new 0 0 320 225.6" xml:space="preserve">
<g transform="translate(-124 -1382)">
	<g transform="translate(259 1382)">
		<rect x="-135" y="135" fill="#E4F2F8" width="320" height="90.6"/>
		<rect x="-134" y="136" fill="none" stroke="#4D8CAD" stroke-width="2" width="318" height="88.6"/>
	</g>
	<g transform="translate(188.999 1382.376)">
		<path fill="#EDF6FA" d="M-64,140.3L-64,140.3V65.6h317.6v74.7H248h-0.1l-0.1,0l-153,23.3l-153-23.3l-0.1,0h-0.1H-64z"/>
		<path fill="#4D8CAD" d="M-63,139.3h4.7h0.2l0.1,0l152.8,23.3l152.8-23.3l0.1,0h0.2h4.7V66.6H-63V139.3 M-65,141.3v-1V64.6h319.6
			v76.7H248L94.8,164.6l-153.1-23.3H-65z"/>
	</g>
	<g transform="translate(124 1382.376)">
		<path fill="#F7FDFF" d="M1,66.4V0.6h317.6v65.7H313h-0.1l-0.1,0l-153,22.2L6.8,66.4l-0.1,0H6.7H1z"/>
		<path fill="#4D8CAD" d="M2,65.4h4.7h0.1l0.1,0l152.9,22.2l152.9-22.2l0.1,0h0.1h4.7V1.6H2V65.4 M0,67.4v-1V-0.4h319.6v67.7H313
			L159.8,89.6L6.7,67.4H0z"/>
	</g>
	<path fill="#4D8CAD" d="M153.1,1434.5v-28.4h-2.6c-0.1,0.9-0.5,1.9-1,2.6c-0.5,0.7-1.1,1.2-1.9,1.6c-0.8,0.4-1.6,0.7-2.5,0.8
		c-0.9,0.1-1.9,0.2-2.8,0.2v2.7h7.4v20.3H153.1z"/>
	<path fill="#4D8CAD" d="M140.6,1491.2h3.4c0-0.9,0.1-1.7,0.3-2.5c0.2-0.8,0.5-1.6,1-2.3c0.5-0.7,1-1.2,1.7-1.6
		c0.8-0.4,1.7-0.6,2.5-0.6c0.7,0,1.4,0.1,2.1,0.4c0.6,0.2,1.2,0.6,1.7,1c0.5,0.5,0.9,1,1.2,1.6c0.3,0.7,0.5,1.4,0.4,2.1
		c0,0.9-0.1,1.8-0.5,2.6c-0.3,0.8-0.8,1.5-1.4,2.1c-0.7,0.7-1.4,1.3-2.3,1.9c-0.9,0.6-2,1.3-3.2,2.1c-1,0.6-1.9,1.2-2.8,1.9
		c-0.9,0.7-1.7,1.4-2.4,2.3c-0.8,0.9-1.4,2-1.8,3.1c-0.5,1.4-0.8,2.8-0.9,4.3h18.5v-3h-14.6c0.1-0.9,0.5-1.7,1-2.3
		c0.5-0.7,1.2-1.3,1.9-1.9c0.8-0.6,1.6-1.2,2.4-1.7c0.9-0.5,1.8-1,2.6-1.6c0.9-0.6,1.7-1.1,2.6-1.8c0.8-0.6,1.5-1.3,2.2-2.1
		c0.6-0.8,1.2-1.6,1.5-2.6c0.4-1.1,0.6-2.2,0.6-3.3c0-1.2-0.2-2.4-0.7-3.5c-0.4-1-1.1-1.8-1.9-2.5c-0.8-0.7-1.8-1.2-2.8-1.6
		c-1.1-0.4-2.3-0.5-3.5-0.5c-1.4,0-2.7,0.2-4,0.8c-1.1,0.5-2.1,1.2-2.9,2.1c-0.8,0.9-1.4,2-1.7,3.2
		C140.7,1488.5,140.5,1489.8,140.6,1491.2z"/>
	<path fill="#4D8CAD" d="M147.6,1569.3v2.9c0.7-0.1,1.4-0.1,2-0.1c0.8,0,1.6,0.1,2.4,0.3c0.7,0.2,1.3,0.6,1.9,1
		c0.5,0.5,1,1.1,1.3,1.7c0.3,0.7,0.5,1.5,0.5,2.3c0,0.8-0.2,1.6-0.5,2.3c-0.3,0.7-0.8,1.2-1.3,1.7c-0.6,0.5-1.2,0.8-2,1.1
		c-0.8,0.3-1.6,0.4-2.4,0.4c-1.7,0.1-3.3-0.5-4.4-1.7c-1.1-1.3-1.6-2.9-1.6-4.5h-3.4c0,1.3,0.2,2.7,0.6,3.9c0.4,1.1,1.1,2.1,1.9,2.9
		c0.9,0.8,1.9,1.4,3,1.8c1.3,0.4,2.6,0.6,3.9,0.6c1.3,0,2.6-0.2,3.8-0.5c1.1-0.3,2.2-0.9,3.1-1.6c0.9-0.7,1.6-1.7,2.1-2.7
		c0.5-1.2,0.8-2.5,0.8-3.7c0-1.6-0.4-3.1-1.3-4.4c-0.9-1.3-2.3-2.2-3.9-2.4v-0.1c1.1-0.5,2.1-1.3,2.8-2.2c0.7-1,1.1-2.2,1.1-3.4
		c0-1.2-0.2-2.3-0.7-3.4c-0.4-0.9-1-1.7-1.8-2.4c-0.8-0.6-1.7-1.1-2.7-1.4c-1.1-0.3-2.3-0.5-3.4-0.5c-1.3,0-2.6,0.2-3.7,0.7
		c-1,0.4-2,1.1-2.7,1.9c-0.7,0.8-1.3,1.8-1.7,2.9c-0.4,1.2-0.6,2.5-0.7,3.7h3.4c0-0.8,0.1-1.6,0.3-2.4c0.2-0.7,0.5-1.4,1-2
		c0.5-0.6,1-1,1.7-1.3c0.7-0.3,1.6-0.5,2.4-0.5c1.3,0,2.6,0.4,3.6,1.1c1,0.8,1.5,2.1,1.4,3.4c0,0.7-0.1,1.4-0.4,2
		c-0.3,0.6-0.7,1.1-1.2,1.5c-0.5,0.4-1.1,0.7-1.7,0.9c-0.7,0.2-1.4,0.3-2.1,0.3H148C147.8,1569.3,147.7,1569.3,147.6,1569.3z"/>
</g>
</svg>
